[{
    "id": 1,
    "nome": "Brena",
    "cognome": "Bride",
    "email": "bbride0@yelp.com",
    "lavoro": "Database Administrator I"
  }, {
    "id": 2,
    "nome": "Constancia",
    "cognome": "Rubinow",
    "email": "crubinow1@kickstarter.com",
    "lavoro": "Human Resources Manager"
  }, {
    "id": 3,
    "nome": "Minnie",
    "cognome": "Bernardelli",
    "email": "mbernardelli2@i2i.jp",
    "lavoro": "Research Assistant II"
  }, {
    "id": 4,
    "nome": "Augusto",
    "cognome": "Crowder",
    "email": "acrowder3@amazonaws.com",
    "lavoro": "Editor"
  }, {
    "id": 5,
    "nome": "Jacob",
    "cognome": "Beatson",
    "email": "jbeatson4@ox.ac.uk",
    "lavoro": "Occupational Therapist"
  }, {
    "id": 6,
    "nome": "Elisa",
    "cognome": "Cruttenden",
    "email": "ecruttenden5@boston.com",
    "lavoro": "Technical Writer"
  }, {
    "id": 7,
    "nome": "Aidan",
    "cognome": "Archbald",
    "email": "aarchbald6@devhub.com",
    "lavoro": "Staff Accountant IV"
  }, {
    "id": 8,
    "nome": "Tanhya",
    "cognome": "Jovicic",
    "email": "tjovicic7@wikispaces.com",
    "lavoro": "Database Administrator III"
  }, {
    "id": 9,
    "nome": "Joela",
    "cognome": "Minett",
    "email": "jminett8@bravesites.com",
    "lavoro": "Clinical Specialist"
  }, {
    "id": 10,
    "nome": "Ignazio",
    "cognome": "Spatarul",
    "email": "ispatarul9@hibu.com",
    "lavoro": "Staff Scientist"
  }, {
    "id": 11,
    "nome": "Ban",
    "cognome": "Dewett",
    "email": "bdewetta@si.edu",
    "lavoro": "Structural Engineer"
  }, {
    "id": 12,
    "nome": "Humberto",
    "cognome": "Ney",
    "email": "hneyb@howstuffworks.com",
    "lavoro": "Chemical Engineer"
  }, {
    "id": 13,
    "nome": "Cal",
    "cognome": "Yakubovich",
    "email": "cyakubovichc@xrea.com",
    "lavoro": "Help Desk Operator"
  }, {
    "id": 14,
    "nome": "Raimund",
    "cognome": "McCole",
    "email": "rmccoled@xing.com",
    "lavoro": "Software Test Engineer IV"
  }, {
    "id": 15,
    "nome": "Yvon",
    "cognome": "Chieze",
    "email": "ychiezee@wiley.com",
    "lavoro": "VP Sales"
  }, {
    "id": 16,
    "nome": "Stace",
    "cognome": "Finker",
    "email": "sfinkerf@geocities.jp",
    "lavoro": "VP Product Management"
  }, {
    "id": 17,
    "nome": "Papagena",
    "cognome": "Sharvell",
    "email": "psharvellg@fda.gov",
    "lavoro": "Teacher"
  }, {
    "id": 18,
    "nome": "Conn",
    "cognome": "Bannard",
    "email": "cbannardh@soundcloud.com",
    "lavoro": "Research Assistant IV"
  }, {
    "id": 19,
    "nome": "Adriano",
    "cognome": "Hotson",
    "email": "ahotsoni@fastcompany.com",
    "lavoro": "VP Quality Control"
  }, {
    "id": 20,
    "nome": "Emelda",
    "cognome": "Darridon",
    "email": "edarridonj@wsj.com",
    "lavoro": "Payment Adjustment Coordinator"
  }, {
    "id": 21,
    "nome": "Torrin",
    "cognome": "Hellmer",
    "email": "thellmerk@webeden.co.uk",
    "lavoro": "Research Associate"
  }, {
    "id": 22,
    "nome": "Noemi",
    "cognome": "Okeshott",
    "email": "nokeshottl@webeden.co.uk",
    "lavoro": "Design Engineer"
  }, {
    "id": 23,
    "nome": "Bartholomeo",
    "cognome": "Kime",
    "email": "bkimem@cam.ac.uk",
    "lavoro": "Speech Pathologist"
  }, {
    "id": 24,
    "nome": "Sunny",
    "cognome": "Fayerman",
    "email": "sfayermann@google.it",
    "lavoro": "Senior Financial Analyst"
  }, {
    "id": 25,
    "nome": "Berrie",
    "cognome": "Martinovsky",
    "email": "bmartinovskyo@fda.gov",
    "lavoro": "Civil Engineer"
  }, {
    "id": 26,
    "nome": "Marijo",
    "cognome": "Flaunier",
    "email": "mflaunierp@xing.com",
    "lavoro": "Assistant Professor"
  }, {
    "id": 27,
    "nome": "Geoffrey",
    "cognome": "De la Perrelle",
    "email": "gdelaperrelleq@mayoclinic.com",
    "lavoro": "VP Quality Control"
  }, {
    "id": 28,
    "nome": "Hans",
    "cognome": "Rizzini",
    "email": "hrizzinir@mashable.com",
    "lavoro": "Senior Editor"
  }, {
    "id": 29,
    "nome": "Geneva",
    "cognome": "Wakes",
    "email": "gwakess@aboutads.info",
    "lavoro": "Research Assistant IV"
  }, {
    "id": 30,
    "nome": "Sissy",
    "cognome": "Pinke",
    "email": "spinket@wsj.com",
    "lavoro": "General Manager"
  }]
  